RTL/LoAS modules/laggy_prefix_tb.vcd
$date
	Tue Feb 25 16:39:06 2025
$end
$version
	Icarus Verilog
$end
$timescale
	1s
$end
$scope module laggy_prefix_tb $end
$var wire 1 ! slow_valid $end
$var wire 4 " slow_offset [3:0] $end
$var wire 1 # ready_for_new_calc $end
$var wire 1 $ fifo_full $end
$var wire 1 % fifo_empty $end
$var parameter 32 & BITMASK_WIDTH $end
$var parameter 32 ' FIFO_DEPTH $end
$var parameter 32 ( NUM_ADDERS $end
$var parameter 32 ) WEIGHT_WIDTH $end
$var reg 16 * and_result [15:0] $end
$var reg 16 + bitmask_a [15:0] $end
$var reg 1 , clk $end
$var reg 4 - matched_position [3:0] $end
$var reg 8 . matched_weight [7:0] $end
$var reg 1 / rst $end
$var reg 1 0 valid_match $end
$scope module uut $end
$var wire 16 1 and_result [15:0] $end
$var wire 16 2 bitmask_a [15:0] $end
$var wire 1 , clk $end
$var wire 1 3 fifo_write_en $end
$var wire 4 4 matched_position [3:0] $end
$var wire 8 5 matched_weight [7:0] $end
$var wire 1 / rst $end
$var wire 1 0 valid_match $end
$var wire 8 6 fifo_weight_out [7:0] $end
$var wire 4 7 fifo_mp_out [3:0] $end
$var wire 1 $ fifo_full $end
$var wire 1 % fifo_empty $end
$var parameter 32 8 BITMASK_WIDTH $end
$var parameter 32 9 CHUNK_SIZE $end
$var parameter 32 : FIFO_DEPTH $end
$var parameter 32 ; NUM_ADDERS $end
$var parameter 32 < WEIGHT_WIDTH $end
$var reg 4 = current_position [3:0] $end
$var reg 8 > current_weight [7:0] $end
$var reg 1 ? fifo_read_en $end
$var reg 1 @ processing $end
$var reg 1 # ready_for_new_calc $end
$var reg 3 A slow_counter [2:0] $end
$var reg 4 B slow_offset [3:0] $end
$var reg 1 ! slow_valid $end
$var reg 16 C temp_vector [15:0] $end
$var integer 32 D i [31:0] $end
$var integer 32 E j [31:0] $end
$scope function count_ones_in_range $end
$upscope $end
$scope module matched_pos_fifo $end
$var wire 1 , clk $end
$var wire 4 F data_in [3:0] $end
$var wire 1 ? read_en $end
$var wire 1 / rst $end
$var wire 1 3 write_en $end
$var parameter 32 G DEPTH $end
$var parameter 32 H WIDTH $end
$var reg 4 I data_out [3:0] $end
$var reg 1 % empty $end
$var reg 1 $ full $end
$var reg 4 J read_ptr [3:0] $end
$var reg 4 K write_ptr [3:0] $end
$upscope $end
$scope module weight_fifo $end
$var wire 1 , clk $end
$var wire 8 L data_in [7:0] $end
$var wire 1 ? read_en $end
$var wire 1 / rst $end
$var wire 1 3 write_en $end
$var parameter 32 M DEPTH $end
$var parameter 32 N WIDTH $end
$var reg 8 O data_out [7:0] $end
$var reg 1 P empty $end
$var reg 1 Q full $end
$var reg 4 R read_ptr [3:0] $end
$var reg 4 S write_ptr [3:0] $end
$upscope $end
$upscope $end
$upscope $end
$enddefinitions $end
$comment Show the parameter values. $end
$dumpall
b1000 N
b1000 M
b100 H
b1000 G
b1000 <
b10000 ;
b1000 :
b1 9
b10000 8
b1000 )
b10000 (
b1000 '
b10000 &
$end
#0
$dumpvars
b0 S
b0 R
0Q
1P
b0 O
b0 L
b0 K
b0 J
b0 I
b0 F
bx E
b10000 D
b0 C
b0 B
b0 A
0@
0?
b0 >
b0 =
b0 7
b0 6
b0 5
b0 4
03
b0 2
b0 1
00
1/
b0 .
b0 -
0,
b0 +
b0 *
1%
0$
1#
b0 "
0!
$end
#5
b10000 D
1,
#10
0,
#15
b10000 D
1,
#20
0,
#25
0/
1,
#30
0,
#35
13
10
b1011010 .
b1011010 5
b1011010 L
b101 -
b101 4
b101 F
b101100 +
b101100 2
1,
#40
0,
#45
0P
0%
b1 S
b1 K
03
00
1,
#50
0,
#55
0#
1?
1,
#60
0,
#65
1P
1%
b101100 C
1@
0?
b1 R
b1011010 6
b1011010 O
b1 J
b101 7
b101 I
b1111 E
b10000 D
1,
#70
0,
#75
b1 A
b1000 D
1,
#80
0,
#85
b10 A
b100 D
1,
#90
0,
#95
b11 A
b10 D
1,
#100
0,
#105
b100 A
1,
#110
0,
#115
b101 A
1,
#120
0,
#125
b110 A
1,
#130
0,
#135
b111 A
1,
#140
0,
#145
1#
0@
1!
b0 A
1,
#150
0,
#155
0!
1,
#160
0,
#165
1,
#170
0,
#175
13
10
b111011 .
b111011 5
b111011 L
b11 -
b11 4
b11 F
1,
#180
0,
#185
0P
0%
b10 S
b10 K
03
00
1,
#190
0,
#195
0#
1?
1,
#200
0,
#205
1P
1%
1@
b1011010 >
b101 =
0?
b10 R
b111011 6
b111011 O
b10 J
b11 7
b11 I
b1111 E
b10000 D
1,
#210
0,
#215
b1 A
b1000 D
1,
#220
0,
#225
b10 A
b100 D
1,
#230
0,
#235
b11 A
b10 D
1,
#240
0,
#245
b100 A
1,
#250
0,
#255
b101 A
1,
#260
0,
#265
b110 A
1,
#270
0,
#275
b111 A
1,
#280
0,
#285
1#
0@
1!
b11 "
b11 B
b0 A
1,
#290
0,
#295
0!
1,
#300
0,
#305
1,
#310
0,
#315
13
10
b101100 .
b101100 5
b101100 L
b10 -
b10 4
b10 F
1,
#320
0,
#325
0P
0%
b11 S
b11 K
03
00
1,
#330
0,
#335
0#
1?
1,
#340
0,
#345
1P
1%
1@
b111011 >
b11 =
0?
b11 R
b101100 6
b101100 O
b11 J
b10 7
b10 I
b1111 E
b10000 D
1,
#350
0,
#355
b1 A
b1000 D
1,
#360
0,
#365
b10 A
b100 D
1,
#370
0,
#375
b11 A
b10 D
1,
#380
0,
#385
b100 A
1,
#390
0,
#395
b101 A
1,
#400
0,
#405
b110 A
1,
#410
0,
#415
b111 A
1,
#420
0,
#425
1#
0@
1!
b10 "
b10 B
b0 A
1,
#430
0,
#435
0!
1,
